{
    "name" : "Seoni",
    "gender" : "Female",
    "race" : "Human",
    "class" : "Sorcerer",
    "favoredCardType" : "Spell",
    "skills" : [{
                "name" : "Strength",
                "effect" : "d4",
                "feats" : [
                           {"value" : "+1"}
                           ]
                },
                {
                "name" : "Dexterity",
                "effect" : "d8",
                "feats" : [
                           {"value" : "+1"},
                           {"value" : "+2"},
                           {"value" : "+3"}
                           ]
                },
                {
                "name" : "Constitution",
                "effect" : "d6",
                "feats" : [
                           {"value" : "+1"},
                           {"value" : "+2"}
                           ]
                },
                {
                "name" : "Intelligence",
                "effect" : "d6",
                "feats" : [
                           {"value" : "+1"},
                           {"value" : "+2"},
                           {"value" : "+3"}
                           ]
                },
                {
                "name" : "Wisdom",
                "effect" : "d6",
                "feats" : [
                           {"value" : "+1"},
                           {"value" : "+2"}
                           ]
                },
                {
                "name" : "Charisma",
                "effect" : "d12",
                "feats" : [
                           {"value" : "+1"},
                           {"value" : "+2"},
                           {"value" : "+3"},
                           {"value" : "+4"}
                           ],
                "specialSkills" : [{
                                   "name" : "Diplomacy",
                                   "effect" : "+2"
                                   },
                                   {"name" : "Arcane",
                                   "effect" : "+2"
                                   }]
                }],
    "powers" : [{
                "name" : "Hand Size",
                "effect" : "%6:feat%",
                "feats" : [
                           {"value" : "7"}
                           ]
                },
                {
                "effect" : "For your combat check, you may discard a card to roll your Arcane die + 1d6%feat% with the Attack, Fire, and Magic traits. This counts as playing a spell.",
                "feats" : [
                           {"value" : "+1"},
                           {"value" : "+2"}
                           ],
                "id" : "arcane_combat"
                },
                {
                "effect" : "You automatically succeed at your check to recharge a spell %feat% with the Arcane trait.",
                "feats" : [
                           {"value" : "or item"}
                           ]
                }],
    "cardsList" : [{
                   "name" : "Weapon",
                   "effect" : "%None:feat%",
                   "feats" : [
                              {"value" : "1"}
                              ]
                   },
                   {
                   "name" : "Spell",
                   "effect" : "%3:feat%",
                   "feats" : [
                              {"value" : "4"},
                              {"value" : "5"},
                              {"value" : "6"}
                              ]
                   },
                   {
                   "name" : "Armor",
                   "effect" : "%None:feat%"
                   },
                   {
                   "name" : "Item",
                   "effect" : "%3:feat%",
                   "feats" : [
                              {"value" : "4"},
                              {"value" : "5"},
                              {"value" : "6"}
                              ]
                   },
                   {
                   "name" : "Ally",
                   "effect" : "%4:feat%",
                   "feats" : [
                              {"value" : "5"}
                              ]
                   },
                   {
                   "name" : "Blessing",
                   "effect" : "%5:feat%",
                   "feats" : [
                              {"value" : "6"},
                              {"value" : "7"}
                              ]
                   }],
    "roleCards" : [{
                   "name" : "Abyssal Sorceror",
                   "powers" : [{
                               "effect" : "For your combat check, you may discard a card to roll your Arcane die + 1d6%feat% with the Fire %feat2% trait and the Attack and Magic traits. This counts as playing a spell.",
                               "feats" : [
                                          {"value" : "+3"},
                                          {"value" : "+4"},
                                          {"value" : "or Acid", "id" : "feat2"}
                                          ],
                               "id" : "arcane_combat"
                               },
                               {
                               "effect" : "Reduce Fire %feat% damage dealt to you by %1:feat2%.",
                               "optional" : true,
                               "feats" : [
                                          {"value" : "and Acid and Cold"},
                                          {"value" : "2", "id" : "feat2"}
                                          ]
                               },
                               {
                               "effect" : "When you play Blessing of Pharasma, add d12 instead of the normal die.",
                               "optional" : true
                               },
                               {
                               "effect" : "At the start of your turn, you may banish an ally to draw 3 cards.",
                               "optional" : true
                               }
                               ]
                   },
                   {
                   "name" : "Celestial Sorceror",
                   "powers" : [{
                               "effect" : "For your combat check, you may discard a card to roll your Arcane die + 1d6%feat% with the Fire %feat2% trait and the Attack and Magic traits. This counts as playing a spell.",
                               "feats" : [
                                          {"value" : "+3"},
                                          {"value" : "+4"},
                                          {"value" : "or Acid", "id" : "feat2"}
                                          ],
                               "id" : "arcane_combat"
                               },
                               {
                               "effect" : "If you would fail a check by 1, you may bury a card to succeed.",
                               "optional" : true
                               },
                               {
                               "effect" : "Reduce Fire %feat% damage dealt to you by %1:feat2%.",
                               "optional" : true,
                               "feats" : [
                                          {"value" : "and Electricity"},
                                          {"value" : "2", "id" : "feat2"}
                                          ]
                               },
                               {
                               "effect" : "When you play Blessing of Pharasma, add d12 instead of the normal die.",
                               "optional" : true
                               }
                               ]
                   }]
}
